<?xml version="1.0" encoding="utf-8"?>
<COLLADA xmlns="http://www.collada.org/2005/11/COLLADASchema" version="1.4.1">
  <asset>
    <contributor>
      <author>Blender User</author>
      <authoring_tool>Blender 2.73.0 commit date:2015-01-20, commit time:18:16, hash:bbf09d9</authoring_tool>
    </contributor>
    <created>2015-03-14T12:47:26</created>
    <modified>2015-03-14T12:47:26</modified>
    <unit name="meter" meter="1"/>
    <up_axis>Z_UP</up_axis>
  </asset>
  <library_images/>
  <library_effects>
    <effect id="box_mat-effect">
      <profile_COMMON>
        <technique sid="common">
          <phong>
            <emission>
              <color sid="emission">0 0 0 1</color>
            </emission>
            <ambient>
              <color sid="ambient">0 0 0 1</color>
            </ambient>
            <diffuse>
              <color sid="diffuse">0.64 0.64 0.64 1</color>
            </diffuse>
            <specular>
              <color sid="specular">0.5 0.5 0.5 1</color>
            </specular>
            <shininess>
              <float sid="shininess">50</float>
            </shininess>
            <index_of_refraction>
              <float sid="index_of_refraction">1</float>
            </index_of_refraction>
          </phong>
        </technique>
        <extra>
          <technique profile="GOOGLEEARTH">
            <double_sided>1</double_sided>
          </technique>
        </extra>
      </profile_COMMON>
      <extra><technique profile="MAX3D"><double_sided>1</double_sided></technique></extra>
    </effect>
  </library_effects>
  <library_materials>
    <material id="box_mat-material" name="box_mat">
      <instance_effect url="#box_mat-effect"/>
    </material>
  </library_materials>
  <library_geometries>
    <geometry id="triangle-mesh" name="triangle">
      <mesh>
        <source id="triangle-mesh-positions">
          <float_array id="triangle-mesh-positions-array" count="9">0.4999998 0 -0.3333333 -0.4999997 1.49012e-7 -0.3333333 -1.53979e-7 0 0.6666667</float_array>
          <technique_common>
            <accessor source="#triangle-mesh-positions-array" count="3" stride="3">
              <param name="X" type="float"/>
              <param name="Y" type="float"/>
              <param name="Z" type="float"/>
            </accessor>
          </technique_common>
        </source>
        <source id="triangle-mesh-normals">
          <float_array id="triangle-mesh-normals-array" count="3">0 -1 0</float_array>
          <technique_common>
            <accessor source="#triangle-mesh-normals-array" count="1" stride="3">
              <param name="X" type="float"/>
              <param name="Y" type="float"/>
              <param name="Z" type="float"/>
            </accessor>
          </technique_common>
        </source>
        <vertices id="triangle-mesh-vertices">
          <input semantic="POSITION" source="#triangle-mesh-positions"/>
        </vertices>
        <polylist material="box_mat-material" count="1">
          <input semantic="VERTEX" source="#triangle-mesh-vertices" offset="0"/>
          <input semantic="NORMAL" source="#triangle-mesh-normals" offset="1"/>
          <vcount>3 </vcount>
          <p>0 0 2 0 1 0</p>
        </polylist>
      </mesh>
    </geometry>
  </library_geometries>
  <library_controllers/>
  <library_visual_scenes>
    <visual_scene id="Scene" name="Scene">
      <node id="triangle" name="triangle" type="NODE">
        <matrix sid="transform">1 0 0 0 0 0.6710886 0 0 0 0 1 0 0 0 0 1</matrix>
        <instance_geometry url="#triangle-mesh">
          <bind_material>
            <technique_common>
              <instance_material symbol="box_mat-material" target="#box_mat-material"/>
            </technique_common>
          </bind_material>
        </instance_geometry>
      </node>
    </visual_scene>
  </library_visual_scenes>
  <scene>
    <instance_visual_scene url="#Scene"/>
  </scene>
</COLLADA>