<?xml version="1.0" encoding="utf-8"?>
<COLLADA xmlns="http://www.collada.org/2005/11/COLLADASchema" version="1.4.1">
  <asset>
    <contributor>
      <author>Blender User</author>
      <authoring_tool>Blender 2.76.0 commit date:2015-11-03, commit time:10:56, hash:f337fea</authoring_tool>
    </contributor>
    <created>2016-02-27T19:59:12</created>
    <modified>2016-02-27T19:59:12</modified>
    <unit name="meter" meter="1"/>
    <up_axis>Z_UP</up_axis>
  </asset>
  <library_images>
    <image id="texture_png" name="texture_png">
      <init_from>texture.png</init_from>
    </image>
  </library_images>
  <library_effects>
    <effect id="box_mat-effect">
      <profile_COMMON>
        <newparam sid="texture_png-surface">
          <surface type="2D">
            <init_from>texture_png</init_from>
          </surface>
        </newparam>
        <newparam sid="texture_png-sampler">
          <sampler2D>
            <source>texture_png-surface</source>
          </sampler2D>
        </newparam>
        <technique sid="common">
          <phong>
            <emission>
              <color sid="emission">0 0 0 1</color>
            </emission>
            <ambient>
              <color sid="ambient">0 0 0 1</color>
            </ambient>
            <diffuse>
              <texture texture="texture_png-sampler" texcoord="UVMap"/>
            </diffuse>
            <specular>
              <color sid="specular">0.5 0.5 0.5 1</color>
            </specular>
            <shininess>
              <float sid="shininess">50</float>
            </shininess>
            <index_of_refraction>
              <float sid="index_of_refraction">1</float>
            </index_of_refraction>
          </phong>
        </technique>
        <extra>
          <technique profile="GOOGLEEARTH">
            <double_sided>1</double_sided>
          </technique>
        </extra>
      </profile_COMMON>
      <extra><technique profile="MAX3D"><double_sided>1</double_sided></technique></extra>
    </effect>
  </library_effects>
  <library_materials>
    <material id="box_mat-material" name="box_mat">
      <instance_effect url="#box_mat-effect"/>
    </material>
  </library_materials>
  <library_geometries>
    <geometry id="box-mesh" name="box">
      <mesh>
        <source id="box-mesh-positions">
          <float_array id="box-mesh-positions-array" count="24">0.4999998 0.4999997 -0.5 0.4999998 -0.4999998 -0.5 -0.4999998 -0.4999997 -0.5 -0.4999996 0.5 -0.5 0.5 0.4999995 0.5 0.4999994 -0.5000001 0.5 -0.5 -0.4999996 0.5 -0.4999997 0.4999998 0.5</float_array>
          <technique_common>
            <accessor source="#box-mesh-positions-array" count="8" stride="3">
              <param name="X" type="float"/>
              <param name="Y" type="float"/>
              <param name="Z" type="float"/>
            </accessor>
          </technique_common>
        </source>
        <source id="box-mesh-normals">
          <float_array id="box-mesh-normals-array" count="36">0 0 -1 0 0 1 1 -5.96047e-7 3.27825e-7 -4.76837e-7 -1 0 -1 2.38419e-7 -1.19209e-7 2.08616e-7 1 0 0 0 -1 0 0 1 1 0 -2.38419e-7 0 -1 -3.57628e-7 -1 2.38419e-7 -1.49012e-7 2.68221e-7 1 2.38419e-7</float_array>
          <technique_common>
            <accessor source="#box-mesh-normals-array" count="12" stride="3">
              <param name="X" type="float"/>
              <param name="Y" type="float"/>
              <param name="Z" type="float"/>
            </accessor>
          </technique_common>
        </source>
        <source id="box-mesh-map">
          <float_array id="box-mesh-map-array" count="72">0.9999998 0.9999998 0.9999998 2.38419e-7 1.78814e-7 3.57628e-7 2.38419e-7 0.9999998 0 4.17232e-7 0.9999994 0 0.9999995 1 0 1 2.38419e-7 0 0.9999994 1 0 1 1.78814e-7 0 3.57628e-7 0 4.17232e-7 1 0.9999998 1 0.9999998 0 4.17232e-7 0 2.38419e-7 1 4.17232e-7 1 0.9999998 0.9999998 1.78814e-7 3.57628e-7 1 0.9999995 2.38419e-7 0.9999998 0.9999994 0 0.9999998 0 0.9999995 1 2.38419e-7 0 0.9999998 0 0.9999994 1 1.78814e-7 0 1 0 3.57628e-7 0 0.9999998 1 1 1 0.9999998 0 2.38419e-7 1</float_array>
          <technique_common>
            <accessor source="#box-mesh-map-array" count="36" stride="2">
              <param name="S" type="float"/>
              <param name="T" type="float"/>
            </accessor>
          </technique_common>
        </source>
        <vertices id="box-mesh-vertices">
          <input semantic="POSITION" source="#box-mesh-positions"/>
        </vertices>
        <polylist material="box_mat-material" count="12">
          <input semantic="VERTEX" source="#box-mesh-vertices" offset="0"/>
          <input semantic="NORMAL" source="#box-mesh-normals" offset="1"/>
          <input semantic="TEXCOORD" source="#box-mesh-map" offset="2" set="0"/>
          <vcount>3 3 3 3 3 3 3 3 3 3 3 3 </vcount>
          <p>0 0 0 1 0 1 2 0 2 7 1 3 6 1 4 5 1 5 4 2 6 5 2 7 1 2 8 5 3 9 6 3 10 2 3 11 2 4 12 6 4 13 7 4 14 0 5 15 3 5 16 7 5 17 3 6 18 0 6 19 2 6 20 4 7 21 7 7 22 5 7 23 0 8 24 4 8 25 1 8 26 1 9 27 5 9 28 2 9 29 3 10 30 2 10 31 7 10 32 4 11 33 0 11 34 7 11 35</p>
        </polylist>
      </mesh>
      <extra><technique profile="MAYA"><double_sided>1</double_sided></technique></extra>
    </geometry>
  </library_geometries>
  <library_controllers/>
  <library_visual_scenes>
    <visual_scene id="Scene" name="Scene">
      <node id="box" name="box" type="NODE">
        <matrix sid="transform">1 0 0 0 0 1 0 0 0 0 1 0 0 0 0 1</matrix>
        <instance_geometry url="#box-mesh" name="box">
          <bind_material>
            <technique_common>
              <instance_material symbol="box_mat-material" target="#box_mat-material">
                <bind_vertex_input semantic="UVMap" input_semantic="TEXCOORD" input_set="0"/>
              </instance_material>
            </technique_common>
          </bind_material>
        </instance_geometry>
      </node>
    </visual_scene>
  </library_visual_scenes>
  <scene>
    <instance_visual_scene url="#Scene"/>
  </scene>
</COLLADA>